subjectID_all, Subject ID
subjectID_cond, Subject ID within each condition
condition, 0=50% overhead; 1=50% overhead covered
charityChoice, 0=Kids Korps; 1=charity: water
freqDonation, "How often do you donate money to non-profits?" (1-low; 6-high)
familiar_Water, "How familiar are you with charity: water?" (1-low; 7-high)
male, Male dummy
female, Female dummy